<?xml version="1.0" standalone="no"?>
<!DOCTYPE svg PUBLIC "-//W3C//DTD SVG 1.1//EN" "http://www.w3.org/Graphics/SVG/1.1/DTD/svg11.dtd" >
<svg xmlns="http://www.w3.org/2000/svg">
<metadata>
This is a custom SVG font generated by IcoMoon.
<iconset grid="16"></iconset>
</metadata>
<defs>
<font id="icomoon" horiz-adv-x="512" >
<font-face units-per-em="512" ascent="480" descent="-32" />
<missing-glyph horiz-adv-x="512" />
<glyph class="hidden" unicode="&#xf000;" d="M0,480L 512 -32L0 -32 z" horiz-adv-x="0" />
<glyph unicode="&#x21;" d="M 512,184.778 L 256,383.491 L 0,184.777 L 0,265.796 L 256,464.509 L 512,265.795 ZM 448,192 L 448,0 L 320,0 L 320,128 L 192,128 L 192,0 L 64,0 L 64,192 L 256,336 Z"  />
<glyph unicode="&#x22;" d="M0-32l 256,0 L 256,480 L0,480 L0-32 z M 160,416l 64,0 l0-64 l-64,0 L 160,416 z M 160,288l 64,0 l0-64 l-64,0 L 160,288 z M 160,160l 64,0 l0-64 l-64,0 L 160,160 z M 32,416l 64,0 l0-64 L 32,352 L 32,416 z M 32,288
			l 64,0 l0-64 L 32,224 L 32,288 z M 32,160l 64,0 l0-64 L 32,96 L 32,160 zM 288,320L 512,320L 512,288L 288,288zM 288-32L 352-32L 352,96L 448,96L 448-32L 512-32L 512,256L 288,256 		z"  />
<glyph unicode="&#x23;" d="M 448,384 L 64,384 L 64,64 L 448,64 L 448,384 Z M 512,448 L 512,448 L 512,0 L 0,0 L 0,448 L 512,448 ZM 416,96 L 96,96 L 96,160 L 192,320 L 323.5,160 L 416,224 L 416,192 ZM 320,304A48,48 2700 1 1 416,304A48,48 2700 1 1 320,304z"  />
<glyph unicode="&#x25;" d="M 416,0L 512,256L 96,256L0,0 zM 64,288 L 0,0 L 0,416 L 144,416 L 208,352 L 416,352 L 416,288 Z"  />
<glyph unicode="&#x26;" d="M 256,480L0,320l 512,0 L 256,480z M 400,288l 16-32l0-192 l 64,0 L 480,256 l 16,32L 400,288 z M 272,288l 16-32l0-192 l 64,0 L 352,256 l 16,32L 272,288 z M 144,288l 16-32l0-192 l 64,0 
	L 224,256 l 16,32L 144,288 z M 16,288l 16-32l0-192 l 64,0 L 96,256 l 16,32L 16,288 z M 16,32L0-32l 512,0 l-16,64L 16,32 z M 288,384c0-17.673-14.327-32-32-32
	c-17.673,0-32,14.327-32,32s 14.327,32, 32,32C 273.673,416, 288,401.673, 288,384z"  />
<glyph unicode="&#x27;" d="M 464,416L 48,416 C 21.6,416,0,394.4,0,368l0-288 c0-26.4, 21.6-48, 48-48l 416,0 c 26.4,0, 48,21.6, 48,48L 512,368 C 512,394.4, 490.4,416, 464,416z M 48,384
		l 416,0 c 8.673,0, 16-7.327, 16-16l0-48 L 32,320 l0,48 C 32,376.673, 39.327,384, 48,384z M 464,64L 48,64 c-8.673,0-16,7.327-16,16L 32,224 l 448,0 l0-144 
		C 480,71.327, 472.673,64, 464,64zM 64,160L 96,160L 96,96L 64,96zM 128,160L 160,160L 160,96L 128,96zM 192,160L 224,160L 224,96L 192,96z"  />
<glyph unicode="&#x28;" d="M 464,416L 48,416 C 21.6,416,0,394.4,0,368l0-320 c0-26.4, 21.6-48, 48-48l 416,0 c 26.4,0, 48,21.6, 48,48L 512,368 C 512,394.4, 490.4,416, 464,416z
	 M 199.37,204.814L 64,99.368L 64,350.189 L 199.37,204.814z M 88.19,352L 423.81,352 L 256,226L 88.19,352z M 204.644,199.151L 256,144l 51.355,55.151
	L 412.632,64L 99.368,64 L 204.644,199.151z M 312.63,204.814L 448,350.189l0-250.821 L 312.63,204.814z"  />
<glyph unicode="&#x29;" d="M 352,480c-88.365,0-160-71.634-160-160c0-10.013, 0.929-19.808, 2.688-29.312L0,96l0-96 c0-17.673, 14.327-32, 32-32
	l 32,0 l0,32 l 64,0 l0,64 l 64,0 l0,64 l 64,0 l 41.521,41.521C 314.526,163.363, 332.869,160, 352,160c 88.365,0, 160,71.634, 160,160S 440.365,480, 352,480z
	 M 399.937,319.937c-26.51,0-48,21.49-48,48s 21.49,48, 48,48s 48-21.49, 48-48S 426.447,319.937, 399.937,319.937z"  />
<glyph unicode="&#x2a;" d="M 512,175.953l0,96.094 l-73.387,12.231c-2.979,9.066-6.611,17.834-10.847,26.25l 43.227,60.517l-67.948,67.949l-60.413-43.152
		c-8.455,4.277-17.269,7.944-26.384,10.951L 304.047,480l-96.094,0 l-12.201-73.208c-9.115-3.007-17.929-6.674-26.383-10.951
		l-60.414,43.152l-67.949-67.949l 43.227-60.518c-4.235-8.415-7.867-17.183-10.846-26.249L0,272.047l0-96.094 l 73.559-12.26
		c 2.98-8.984, 6.605-17.674, 10.821-26.015l-43.374-60.724l 67.949-67.948l 60.827,43.447c 8.301-4.175, 16.945-7.764, 25.882-10.717
		L 207.953-32l 96.094,0 l 12.289,73.737c 8.937,2.953, 17.581,6.542, 25.883,10.716l 60.826-43.446l 67.948,67.948l-43.372,60.723
		c 4.216,8.341, 7.839,17.031, 10.82,26.016L 512,175.953z M 256,160c-35.346,0-64,28.653-64,64c0,35.346, 28.654,64, 64,64
		c 35.347,0, 64-28.654, 64-64C 320,188.653, 291.347,160, 256,160z"  />
<glyph unicode="&#x2b;" d="M 400,416L 112,416 c-26.51,0-48-21.49-48-48l0-16 l 384,0 l0,16 C 448,394.51, 426.51,416, 400,416zM 316.16,448l 7.058-50.5L 188.782,397.5 l 7.057,50.5L 316.16,448  M 320,480L 192,480 c-13.2,0-25.495-10.696-27.321-23.769l-9.357-66.962
	C 153.495,376.196, 162.8,365.5, 176,365.5l 160,0 c 13.2,0, 22.505,10.696, 20.679,23.769l-9.357,66.962C 345.495,469.304, 333.2,480, 320,480L 320,480z
	M 408,320L 104,320 c-17.6,0-30.696-14.341-29.103-31.869l 26.206-288.263C 102.696-17.659, 118.4-32, 136-32l 240,0 
	c 17.6,0, 33.304,14.341, 34.897,31.868l 26.205,288.263C 438.696,305.659, 425.6,320, 408,320z M 192,32l-48,0 l-16,224l 64,0 L 192,32 z M 288,32l-64,0 
	L 224,256 l 64,0 L 288,32 z M 368,32l-48,0 L 320,256 l 64,0 L 368,32z"  />
<glyph unicode="&#x2c;" d="M 496,288L 320,288 L 320,464 c0,8.836-7.164,16-16,16l-96,0 c-8.836,0-16-7.164-16-16l0-176 L 16,288 c-8.836,0-16-7.164-16-16l0-96 
	c0-8.836, 7.164-16, 16-16l 176,0 l0-176 c0-8.836, 7.164-16, 16-16l 96,0 c 8.836,0, 16,7.164, 16,16L 320,160 l 176,0 c 8.836,0, 16,7.164, 16,16l0,96 
	C 512,280.836, 504.836,288, 496,288z"  />
<glyph unicode="&#x2d;" d="M0,272l0-96 c0-8.836, 7.164-16, 16-16l 480,0 c 8.836,0, 16,7.164, 16,16l0,96 c0,8.836-7.164,16-16,16L 16,288 C 7.164,288,0,280.836,0,272z"  />
<glyph unicode="&#x2e;" d="M 507.331,68.67c-0.002,0.002-0.004,0.004-0.006,0.005L 352.003,224l 155.322,155.325c 0.002,0.002, 0.004,0.003, 0.006,0.005
		c 1.672,1.673, 2.881,3.627, 3.656,5.708c 2.123,5.688, 0.912,12.341-3.662,16.915L 433.952,475.326c-4.574,4.573-11.225,5.783-16.914,3.66
		c-2.080-0.775-4.035-1.984-5.709-3.655c0-0.002-0.002-0.003-0.004-0.005L 256.001,320L 100.677,475.325
		c-0.002,0.002-0.003,0.003-0.005,0.005c-1.673,1.671-3.627,2.88-5.707,3.655c-5.69,2.124-12.341,0.913-16.915-3.66L 4.676,401.951
		c-4.574-4.574-5.784-11.226-3.661-16.914c 0.776-2.080, 1.985-4.036, 3.656-5.708c 0.002-0.001, 0.003-0.003, 0.005-0.005L 160.001,224
		L 4.676,68.674c-0.001-0.002-0.003-0.003-0.004-0.005c-1.671-1.673-2.88-3.627-3.657-5.707c-2.124-5.688-0.913-12.341, 3.661-16.915
		l 73.374-73.373c 4.575-4.574, 11.226-5.784, 16.915-3.661c 2.080,0.776, 4.035,1.985, 5.708,3.656c 0.001,0.002, 0.003,0.003, 0.005,0.005
		l 155.324,155.325l 155.324-155.325c 0.002-0.001, 0.004-0.003, 0.006-0.004c 1.674-1.672, 3.627-2.881, 5.707-3.657
		c 5.689-2.123, 12.342-0.913, 16.914,3.661l 73.373,73.374c 4.574,4.574, 5.785,11.227, 3.662,16.915
		C 510.212,65.043, 509.003,66.997, 507.331,68.67z"  />
<glyph unicode="&#x2f;" d="M 432,416L 192,176L 80,288L0,208L 192,16L 512,336 z"  />
<glyph unicode="&#x30;" d="M0,480L 128,480L 128,352L0,352zM 192,448L 512,448L 512,384L 192,384zM0,288L 128,288L 128,160L0,160zM 192,256L 512,256L 512,192L 192,192zM0,96L 128,96L 128-32L0-32zM 192,64L 512,64L 512,0L 192,0z"  />
<glyph unicode="&#x31;" d="M 32,384L 480,384L 480,288L 32,288zM 32,256L 480,256L 480,160L 32,160zM 32,128L 480,128L 480,32L 32,32z"  />
<glyph unicode="&#x32;" d="M0,64L 512,64L 512,0L0,0zM 64,192L 128,192L 128,96L 64,96zM 160,320L 224,320L 224,96L 160,96zM 256,224L 320,224L 320,96L 256,96zM 352,416L 416,416L 416,96L 352,96z"  />
<glyph unicode="&#x33;" d="M 64,32 L 512,32 L 512-32 L 0-32 L 0,480 L 64,480 ZM 144,64 C 117.49,64 96,85.49 96,112 C 96,138.51 117.49,160 144,160 C 145.414,160 146.811,159.926 148.194,159.807 L 199.79,245.8 C 194.87,253.335 192,262.331 192,272.001 C 192,298.511 213.49,320.001 240,320.001 C 266.51,320.001 288,298.511 288,272.001 C 288,262.33 285.13,253.335 280.21,245.8 L 331.806,159.807 C 333.189,159.926 334.586,160 336,160 C 337.068,160 338.124,159.953 339.175,159.885 L 424.353,308.946 C 419.085,316.65 416,325.964 416,336.001 C 416,362.511 437.49,384.001 464,384.001 C 490.51,384.001 512,362.511 512,336.001 C 512,309.491 490.51,288.001 464,288.001 C 462.93,288.001 461.876,288.048 460.825,288.117 L 375.647,139.055 C 380.915,131.352 384,122.037 384,112 C 384,85.49 362.51,64 336,64 C 309.49,64 288,85.49 288,112 C 288,121.67 290.87,130.666 295.789,138.201 L 244.194,224.193 C 242.811,224.074 241.414,224 240,224 C 238.586,224 237.189,224.073 235.806,224.193 L 184.21,138.2 C 189.13,130.666 192,121.67 192,112 C 192,85.49 170.51,64 144,64 Z"  />
<glyph unicode="&#x34;" d="M 144,288L 48,288 c-8.8,0-16-7.2-16-16l0-288 c0-8.8, 7.2-16, 16-16l 96,0 c 8.8,0, 16,7.2, 16,16L 160,272 C 160,280.8, 152.8,288, 144,288z M 144,0
		L 48,0 L 48,128 l 96,0 L 144,0 zM 304,352l-96,0 c-8.8,0-16-7.2-16-16l0-352 c0-8.8, 7.2-16, 16-16l 96,0 c 8.8,0, 16,7.2, 16,16L 320,336 C 320,344.8, 312.8,352, 304,352z
		 M 304,0l-96,0 L 208,160 l 96,0 L 304,0 zM 464,416l-96,0 c-8.8,0-16-7.2-16-16l0-416 c0-8.8, 7.2-16, 16-16l 96,0 c 8.8,0, 16,7.2, 16,16L 480,400 C 480,408.8, 472.8,416, 464,416z M 464,0l-96,0 
		L 368,192 l 96,0 L 464,0 z"  />
<glyph unicode="&#x36;" d="M 367.497,77.313c-9.476,1.494-9.692,27.327-9.692,27.327s 27.844,27.328, 33.912,64.076
	c 16.326,0, 26.407,39.069, 10.082,52.814c 0.681,14.47, 20.984,113.588-81.799,113.588c-102.782,0-82.479-99.118-81.799-113.588
	c-16.327-13.745-6.244-52.814, 10.081-52.814c 6.067-36.748, 33.913-64.076, 33.913-64.076s-0.216-25.833-9.692-27.327
	C 241.979,72.497, 128,22.655, 128-32l 192,0 l 192,0 C 512,22.655, 398.021,72.497, 367.497,77.313zM 172.027,68.595c 22.047,13.575, 48.813,26.154, 70.769,33.712c-7.876,11.216-16.647,26.468-22.165,44.531
	c-7.703,6.283-13.972,15.266-17.999,26.301c-4.033,11.052-5.561,23.426-4.304,34.842c 0.902,8.196, 3.239,15.833, 6.825,22.544
	c-2.175,23.293-3.707,69.017, 26.224,102.366c 11.607,12.933, 26.278,22.23, 43.85,27.843C 272.090,393.114, 255.647,431.119, 192,431.119
	c-102.782,0-82.479-99.118-81.799-113.588c-16.327-13.745-6.244-52.814, 10.081-52.814c 6.067-36.748, 33.913-64.076, 33.913-64.076
	s-0.216-25.833-9.692-27.327C 113.979,168.497,0,118.655,0,64l 164.798,0 C 167.153,65.537, 169.551,67.070, 172.027,68.595z"  />
<glyph unicode="&#x37;" d="M 288.117,335.365L 409.473,376.081L 511.265,72.689L 389.909,31.973zM0,32l 128,0 L 128,384 L0,384 L0,32 z M 32,320l 64,0 l0-32 L 32,288 L 32,320 zM 160,32l 128,0 L 288,384 L 160,384 L 160,32 z M 192,320l 64,0 l0-32 l-64,0 L 192,320 z"  />
<glyph unicode="&#x38;" d="M 512,382.791c-18.838-8.354-39.082-14.001-60.33-16.54c 21.686,13, 38.343,33.585, 46.186,58.115
	c-20.298-12.039-42.778-20.78-66.705-25.49c-19.16,20.415-46.461,33.17-76.673,33.17c-58.011,0-105.044-47.029-105.044-105.039
	c0-8.233, 0.929-16.25, 2.72-23.939c-87.3,4.382-164.701,46.2-216.509,109.753c-9.042-15.514-14.223-33.558-14.223-52.809
	c0-36.444, 18.544-68.596, 46.73-87.433c-17.219,0.546-33.416,5.271-47.577,13.139c-0.010-0.438-0.010-0.878-0.010-1.321
	c0-50.894, 36.209-93.348, 84.261-103c-8.813-2.4-18.094-3.686-27.674-3.686c-6.769,0-13.349,0.66-19.764,1.886
	c 13.368-41.73, 52.16-72.103, 98.126-72.948c-35.95-28.175-81.243-44.967-130.458-44.967c-8.479,0-16.84,0.497-25.058,1.47
	c 46.486-29.805, 101.701-47.197, 161.021-47.197c 193.211,0, 298.868,160.062, 298.868,298.872c0,4.554-0.103,9.084-0.305,13.59
	C 480.11,343.227, 497.918,361.727, 512,382.791z"  />
<glyph unicode="&#x39;" d="M 287.935-32L 192-32 L 192,224 l-64,0 l0,88.225 l 64,0.029l-0.104,51.976C 191.896,436.206, 211.413,480, 296.195,480l 70.588,0 l0-88.242 l-44.115,0 
	c-33.016,0-34.603-12.328-34.603-35.342l-0.131-44.162l 79.345,0 l-9.352-88.225L 288,224L 287.935-32z"  />
<glyph unicode="&#x3a;" d="M 426.672,480L 85.342,480 C 38.406,480,0,441.593,0,394.656l0-341.313 C0,6.374, 38.406-32, 85.342-32l 341.33,0.001
	c 46.938,0, 85.328,38.373, 85.328,85.344L 512,394.656 C 512,441.593, 473.609,480, 426.672,480z M 435.296,224L 352,224 l0-224 l-96,0 L 256,224 l-46.263,0 l0,73.282 L 256,297.282 
	l0,47.593 C 256,409.546, 283.896,448, 359.935,448l 87.622,0 l0-79.285 l-71.565,0 c-21.241,0.035-23.876-11.076-23.876-31.756L 352,297.282l 96,0 
	L 435.296,224z"  />
<glyph unicode="&#x3b;" d="M 426.671,480L 85.343,480 C 38.406,480,0,441.595,0,394.655l0-341.311 C0,6.375, 38.406-32, 85.343-32l 341.328,0 
	C 473.609-32, 512,6.375, 512,53.345L 512,394.655 C 512,441.595, 473.609,480, 426.671,480z M 419.026,309.083
	c 0.164-3.671, 0.245-7.364, 0.245-11.074c0-113.107-84.608-243.534-239.329-243.534c-47.502,0-91.717,14.174-128.943,38.459
	c 6.58-0.794, 13.276-1.197, 20.065-1.197c 39.411,0, 75.679,13.685, 104.467,36.641c-36.808,0.69-67.872,25.438-78.577,59.441
	c 5.137-1, 10.406-1.537, 15.826-1.537c 7.672,0, 15.103,1.048, 22.16,3.004c-38.48,7.866-67.475,42.458-67.475,83.928
	c0,0.361,0,0.719, 0.008,1.076c 11.34-6.41, 24.312-10.26, 38.1-10.705c-22.571,15.349-37.421,41.546-37.421,71.244
	c0,15.685, 4.147,30.389, 11.389,43.029c 41.487-51.785, 103.468-85.86, 173.377-89.431c-1.435,6.266-2.179,12.798-2.179,19.507
	c0,47.269, 37.663,85.59, 84.115,85.59c 24.195,0, 46.059-10.393, 61.401-27.029c 19.16,3.838, 37.162,10.96, 53.416,20.771
	c-6.281-19.988-19.617-36.761-36.983-47.355c 17.013,2.069, 33.226,6.67, 48.31,13.477C 449.725,336.226, 435.463,321.15, 419.026,309.083
	z"  />
<glyph unicode="&#x40;" d="M 437.011,405.010C 390.685,451.338, 326.693,480, 256,480C 146.256,480, 52.655,410.936, 16.251,313.906l 59.938-22.477
		C 103.491,364.202, 173.692,416, 256,416c 53.020,0, 101.010-21.5, 135.753-56.247L 320,288l 192,0 L 512,480 L 437.011,405.010zM 256,32c-53.020,0-101.013,21.496-135.756,56.244L 192,160L0,160 l0-192 l 74.997,74.997C 121.32-3.334, 185.306-32, 256-32
		c 109.745,0, 203.346,69.064, 239.75,166.094l-59.938,22.477C 408.51,83.798, 338.309,32, 256,32z"  />
<glyph unicode="&#x42;" d="M 512,265.372c0,100.463-29.396,181.969-65.741,182.613c 0.146,0.003, 0.289,0.015, 0.436,0.015l-41.471,0 
	c0,0-97.4-73.168-237.615-101.877c-4.28-22.646-7.015-49.637-7.015-80.751c0-31.114, 2.733-58.104, 7.015-80.75
	c 140.214-28.709, 237.615-101.878, 237.615-101.878l 41.471,0 c-0.146,0-0.289,0.012-0.436,0.016C 482.607,83.404, 512,164.909, 512,265.372
	z M 432.412,110.374c-4.691,0-9.766,4.871-12.373,7.774c-6.315,7.032-12.396,17.98-17.594,31.664
	c-11.628,30.616-18.033,71.655-18.033,115.562c0,43.905, 6.405,84.945, 18.033,115.561c 5.197,13.684, 11.281,24.633, 17.594,31.664
	c 2.607,2.906, 7.682,7.776, 12.373,7.776c 4.69,0, 9.768-4.872, 12.372-7.776c 6.317-7.032, 12.398-17.979, 17.594-31.664
	c 11.629-30.615, 18.034-71.656, 18.034-115.561c0-43.902-6.405-84.944-18.034-115.562c-5.195-13.684-11.281-24.632-17.594-31.664
	C 442.18,115.245, 437.104,110.374, 432.412,110.374z M 125.906,265.372c0,25.975, 1.905,51.215, 5.526,74.547
	c-23.686-3.277-44.471-5.162-70.17-5.162c-33.529,0-33.529,0-33.529,0L0,287.414l0-44.085 l 27.73-47.343c0,0,0,0, 33.53,0
	c 25.699,0, 46.484-1.887, 70.17-5.162C 127.812,214.156, 125.906,239.397, 125.906,265.372z M 184.075,158.914l-63.999,12.255
	l 40.921-160.772c 2.118-8.317, 10.372-12.519, 18.343-9.327l 59.278,23.726c 7.972,3.188, 11.164,11.982, 7.098,19.542L 184.075,158.914zM 432.412,205.635c-1.809,0-3.764,1.877-4.769,2.996c-2.435,2.71-4.778,6.93-6.781,12.204
	c-4.481,11.8-6.95,27.617-6.95,44.539c0,16.922, 2.469,32.739, 6.95,44.539c 2.003,5.274, 4.348,9.494, 6.781,12.204
	c 1.005,1.12, 2.96,2.997, 4.769,2.997c 1.808,0, 3.765-1.878, 4.769-2.997c 2.435-2.71, 4.778-6.929, 6.78-12.204
	c 4.482-11.799, 6.951-27.617, 6.951-44.539c0-16.921-2.469-32.739-6.951-44.539c-2.002-5.274-4.348-9.494-6.78-12.204
	C 436.177,207.512, 434.221,205.635, 432.412,205.635z"  />
<glyph unicode="&#x43;" d="M 128,448L 384,448L 384,384L 128,384zM 480,352L 32,352 C 14.4,352,0,337.6,0,320l0-160 c0-17.6, 14.398-32, 32-32l 96,0 l0-128 l 256,0 L 384,128 l 96,0 c 17.6,0, 32,14.4, 32,32L 512,320 
		C 512,337.6, 497.6,352, 480,352z M 352,32L 160,32 L 160,192 l 192,0 L 352,32 z M 487.2,304c0-12.813-10.387-23.2-23.199-23.2
		c-12.813,0-23.201,10.387-23.201,23.2s 10.388,23.2, 23.201,23.2C 476.814,327.2, 487.2,316.813, 487.2,304z"  />
<glyph unicode="&#x44;" d="M 329.372,105.372L 224,210.745L 224,352L 288,352L 288,237.255L 374.628,150.628 	zM 256,480C 114.615,480,0,365.385,0,224s 114.615-256, 256-256s 256,114.615, 256,256S 397.385,480, 256,480z M 256,32
		c-106.039,0-192,85.961-192,192c0,106.039, 85.961,192, 192,192c 106.039,0, 192-85.961, 192-192C 448,117.961, 362.039,32, 256,32z"  />
<glyph unicode="&#x45;" d="M 224,82.745L 121.373,201.372L 150.627,230.627L 224,173.255L 361.372,294.627L 390.628,265.373 	zM 415.886,416c 0.039-0.033, 0.081-0.075, 0.114-0.115l0-383.771 c-0.033-0.039-0.075-0.081-0.114-0.114L 96.114,32 
	c-0.040,0.033-0.081,0.075-0.114,0.114L 96,415.886 c 0.033,0.040, 0.075,0.081, 0.115,0.114L 32,416 l0-384 c0-35.2, 28.8-64, 64-64l 320,0 
	c 35.2,0, 64,28.8, 64,64L 480,416 L 415.886,416 z M 320,416L 320,448 c0,17.673-14.327,32-32,32l-64,0 c-17.673,0-32-14.327-32-32l0-32 l-64,0 l0-64 l 256,0 L 384,416 L 320,416 z
	 M 288,416l-64,0 L 224,448 l 64,0 L 288,416 z"  />
<glyph unicode="&#x46;" d="M 464,416L 48,416 C 21.488,416,0,394.512,0,368l0-288 c0-26.496, 21.488-48, 48-48l 416,0 c 26.512,0, 48,21.504, 48,48L 512,368 C 512,394.512, 490.512,416, 464,416z M 43.856,64.16
	L 32.16,75.872l 131.984,131.968l 11.696-11.712L 43.856,64.16z M 468.144,64.16l-131.984,131.968l 11.696,11.712l 131.984-131.968L 468.144,64.16z M 272,170.8
	L 272,160 l-32,0 l0,10.8 L 32.048,363.6l 20.352,20.352L 256,195.184L 459.6,383.952l 20.352-20.352L 272,170.8z"  />
<glyph unicode="&#x47;" d="M 256,480C 114.615,480,0,365.385,0,224s 114.615-256, 256-256s 256,114.615, 256,256S 397.385,480, 256,480z M 160,224
	c0,53.020, 42.98,96, 96,96s 96-42.98, 96-96s-42.98-96-96-96S 160,170.98, 160,224z M 462.99,138.262L 462.99,138.262l-88.71,36.745
	C 380.539,190.099, 384,206.645, 384,224s-3.461,33.901-9.72,48.993l 61.063,25.293l 27.647,11.452C 473.944,283.327, 480,254.373, 480,224
	C 480,193.627, 473.943,164.673, 462.99,138.262L 462.99,138.262z M 341.739,430.99L 341.739,430.99L 341.739,430.99l-36.745-88.71
	C 289.902,348.539, 273.356,352, 256,352s-33.901-3.461-48.993-9.72l-17.23,41.599l-19.515,47.112C 196.673,441.943, 225.628,448, 256,448
	C 286.373,448, 315.327,441.943, 341.739,430.99z M 49.010,309.738l 47.112-19.515l 41.599-17.23C 131.462,257.901, 128,241.355, 128,224
	s 3.461-33.901, 9.72-48.993l-88.71-36.745C 38.057,164.673, 32,193.627, 32,224C 32,254.373, 38.057,283.327, 49.010,309.738z
	 M 170.262,17.010l 11.452,27.647l 25.293,61.063C 222.099,99.461, 238.645,96, 256,96s 33.901,3.461, 48.993,9.72l 36.745-88.71l0,0l0,0
	C 315.327,6.058, 286.373,0, 256,0C 225.628,0, 196.673,6.057, 170.262,17.010z"  />
<glyph unicode="&#x49;" d="M 256,448 C 397.385,448 512,354.875 512,240 C 512,125.124 397.385,32 256,32 C 242.422,32 229.095,32.867 216.088,34.522 C 161.099-20.467 95.463-30.328 32-31.776 L 32-18.318 C 66.268-1.529 96,29.052 96,64 C 96,68.877 95.621,73.665 94.918,78.348 C 37.020,116.48 0,174.725 0,240 C 0,354.875 114.615,448 256,448 Z"  />
<glyph unicode="&#x4a;" d="M 240,480 L 240,480 C 372.548,480 480,393.043 480,285.776 C 480,178.509 372.548,91.552 240,91.552 C 227.271,91.552 214.777,92.362 202.583,93.907 C 151.030,42.56 91.497,33.353 32,32 L 32,44.567 C 64.126,60.244 90,88.8 90,121.434 C 90,125.987 89.644,130.458 88.985,134.831 C 34.706,170.438 0,224.825 0,285.776 C 0,393.043 107.452,480 240,480 ZM 498,44.657 C 498,16.686 516.157-7.792 544-21.229 L 544-32 C 492.437-30.841 445.107-22.949 400.429,21.063 C 389.859,19.738 379.032,19.043 368,19.043 C 320.265,19.043 276.296,31.922 241.193,53.563 C 313.53,53.816 381.823,76.99 433.61,118.899 C 459.714,140.025 480.307,164.812 494.817,192.573 C 510.2,222.006 518,253.364 518,285.776 C 518,291 517.775,296.194 517.371,301.36 C 553.656,271.393 576,230.549 576,185.522 C 576,133.278 545.921,86.661 498.88,56.14 C 498.309,52.392 498,48.56 498,44.657 Z" horiz-adv-x="576"  />
<glyph unicode="&#x4b;" d="M 96-32L 416-32L 448,320L 64,320 	zM 320,416L 320,480 L 192,480 l0-64 L 32,416 l0-96 l 32,32l 384,0 l 32-32L 480,416 L 320,416 z M 288,416l-64,0 L 224,448 l 64,0 L 288,416 z"  />
<glyph unicode="&#x4c;" d="M 437.020,405.019 C 485.371,356.667 512,292.379 512,223.999 C 512,155.619 485.371,91.332 437.020,42.98 C 388.667-5.371 324.38-32 256-32 C 187.62-32 123.333-5.371 74.98,42.98 C 26.629,91.332 0,155.619 0,223.999 C 0,292.379 26.627,356.667 74.98,405.019 C 123.333,453.371 187.62,480 256,480 C 324.38,480 388.667,453.371 437.020,405.019 Z M 414.392,65.607 C 445.921,97.137 466.885,136.411 475.528,179.138 C 468.791,169.22 462.347,165.541 458.356,187.741 C 454.246,223.936 421.002,200.815 400.098,213.671 C 378.096,198.842 328.645,242.502 337.049,193.259 C 350.016,171.048 407.053,222.984 378.623,175.988 C 360.486,143.18 312.302,70.522 318.57,32.859 C 319.361-22.013 262.503,21.417 242.913,39.619 C 229.735,76.079 238.422,139.806 203.964,157.662 C 166.563,159.286 134.462,162.685 119.967,204.497 C 111.244,234.411 129.249,278.944 161.306,285.819 C 208.231,315.302 224.993,251.292 269.001,250.102 C 282.665,264.399 319.909,268.945 322.997,284.977 C 294.122,290.072 359.631,309.256 320.233,320.168 C 298.498,317.612 284.494,297.631 296.049,280.689 C 253.93,270.868 252.581,341.641 212.094,319.318 C 211.065,284.023 145.983,307.875 189.576,315.032 C 204.554,321.576 165.146,340.54 186.436,337.094 C 196.894,337.662 232.102,350 222.574,358.295 C 242.179,370.465 258.654,329.15 277.843,359.236 C 291.697,382.369 272.033,386.64 254.668,374.914 C 244.878,385.876 271.953,409.552 295.834,419.783 C 303.793,423.193 311.395,425.051 317.207,424.525 C 329.236,410.629 351.482,408.222 352.646,426.196 C 322.855,440.463 290.008,448 256,448 C 207.189,448 160.765,432.488 122.346,403.805 C 132.671,399.075 138.532,393.186 128.585,385.657 C 120.857,362.63 89.5,331.719 61.973,336.095 C 47.68,311.447 38.267,284.292 34.243,255.831 C 57.299,248.203 62.615,233.106 57.661,228.056 C 45.913,217.812 38.693,203.291 34.973,187.395 C 42.478,141.477 64.059,99.157 97.608,65.607 C 139.916,23.3 196.167,0 256,0 C 315.832,0 372.084,23.3 414.392,65.607 Z"  />
<glyph unicode="&#x4d;" d="M 476.698,442.679l-2.014,2.021c-47.074,47.067-124.097,47.067-171.163,0L 194.468,335.632
		c-47.067-47.066-47.067-124.088,0-171.155l 2.013-2.013c 3.916-3.924, 8.073-7.462, 12.368-10.729l 39.924,39.925
		c-4.651,2.747-9.063,6.036-13.058,10.030l-2.021,2.021c-25.557,25.549-25.557,67.136,0,92.695L 342.758,405.462
		c 25.558,25.559, 67.137,25.559, 92.693,0l 2.021-2.012c 25.55-25.558, 25.55-67.146,0-92.695l-49.343-49.343
		c 8.566-21.154, 12.624-43.7, 12.269-66.193l 76.302,76.302C 523.767,318.589, 523.767,395.61, 476.698,442.679zM 315.521,285.533c-3.916,3.916-8.073,7.461-12.368,10.72l-39.924-39.916c 4.652-2.748, 9.063-6.037, 13.058-10.031l 2.021-2.020
		c 25.558-25.558, 25.558-67.136,0-92.694L 169.243,42.525c-25.559-25.551-67.138-25.551-92.694,0l-2.021,2.021
		c-25.549,25.56-25.549,67.138,0,92.694l 49.344,49.343c-8.567,21.153-12.623,43.701-12.269,66.193l-76.301-76.299
		c-47.068-47.066-47.068-124.089,0-171.162l 2.013-2.016c 47.076-47.064, 124.096-47.064, 171.164,0l 109.055,109.059
		c 47.067,47.066, 47.067,124.097,0,171.163L 315.521,285.533z"  />
<glyph unicode="&#x4e;" d="M 348.916,316.476l-32.476,32.461L 154.035,186.566c-26.907-26.896-26.907-70.524,0-97.422
	c 26.902-26.896, 70.53-26.896, 97.437,0l 194.886,194.854c 44.857,44.831, 44.857,117.531,0,162.363
	c-44.833,44.852-117.556,44.852-162.391,0L 79.335,241.788l 0.017-0.016c-0.145-0.152-0.306-0.288-0.438-0.423
	c-62.551-62.548-62.551-163.928,0-226.453c 62.527-62.528, 163.934-62.528, 226.494,0c 0.137,0.137, 0.258,0.284, 0.41,0.438l 0.016-0.017
	l 139.666,139.646l-32.493,32.46L 273.35,47.792l-0.008,0 c-0.148-0.134-0.282-0.285-0.423-0.422
	c-44.537-44.529-116.99-44.529-161.538,0c-44.531,44.521-44.531,116.961,0,161.489c 0.152,0.152, 0.302,0.291, 0.444,0.423l-0.023,0.030
	l 204.64,204.583c 26.856,26.869, 70.572,26.869, 97.443,0c 26.856-26.867, 26.856-70.574,0-97.42L 218.999,121.625
	c-8.968-8.961-23.527-8.961-32.486,0c-8.947,8.943-8.947,23.516,0,32.46L 348.916,316.476z"  />
<glyph unicode="&#x50;" d="M0,224c0-141.385, 114.615-256, 256-256c 141.386,0, 256,114.615, 256,256S 397.386,480, 256,480C 114.615,480,0,365.385,0,224z M 448,224
	c0-36.618-10.256-70.84-28.044-99.956L 156.045,387.956C 185.16,405.745, 219.382,416, 256,416C 362.038,416, 448,330.039, 448,224z M 64,224
	c0,36.618, 10.256,70.839, 28.045,99.956l 263.911-263.912C 326.839,42.255, 292.618,32, 256,32C 149.962,32, 64,117.961, 64,224z"  />
<glyph unicode="&#x4f;" d="M 256,480C 114.615,480,0,365.385,0,224s 114.615-256, 256-256s 256,114.615, 256,256S 397.385,480, 256,480z M 384,306.745L 301.256,224
	L 384,141.256L 384,96 l-45.256,0 L 256,178.744L 173.255,96L 128,96 l0,45.256 L 210.745,224L 128,306.745L 128,352 l 45.255,0 L 256,269.255L 338.744,352L 384,352 
	L 384,306.745 z"  />
<glyph unicode="&#x51;" d="M 256,480C 114.615,480,0,365.385,0,224s 114.615-256, 256-256s 256,114.615, 256,256S 397.385,480, 256,480z M 208,64L 102,202l 47,49l 59-75
	l 185,151l 23-23L 208,64z"  />
<glyph unicode="&#x52;" d="M 507.44,16.752c 6.096-6.096, 6.096-15.984,0-22.096l-22.096-22.096
	c-6.112-6.096-16-6.096-22.096,0l-154.688,154.688c-1.68,1.68-2.8,3.664-3.552,5.776C 273.28,109.84, 234.32,96, 192,96
	C 85.968,96,0,181.968,0,288C0,394.032, 85.968,480, 192,480c 106.032,0, 192-85.968, 192-192c0-42.32-13.84-81.28-37.024-113.008
	c 2.112-0.752, 4.096-1.856, 5.776-3.552L 507.44,16.752z M 192,416c-70.688,0-128-57.312-128-128c0-70.688, 57.312-128, 128-128s 128,57.312, 128,128
	C 320,358.688, 262.688,416, 192,416z"  />
<glyph unicode="&#x53;" d="M 505.216,60.624l-191.984,384C 302.4,466.304, 280.256,480, 256,480s-46.4-13.696-57.232-35.376
			l-191.984-384c-9.92-19.84-8.864-43.408, 2.8-62.288C 21.248-20.512, 41.84-32, 64.016-32l 383.952,0 c 22.192,0, 42.784,11.488, 54.432,30.336
			C 514.064,17.216, 515.12,40.784, 505.216,60.624z M 287.968,48c0-8.848-7.152-16-16-16l-32,0 c-8.848,0-16,7.152-16,16l0,32 c0,8.848, 7.152,16, 16,16l 32,0 
			c 8.848,0, 16-7.152, 16-16L 287.968,48 z M 287.968,176c0-8.848-7.152-16-16-16l-32,0 c-8.848,0-16,7.152-16,16L 223.968,336 c0,8.832, 7.152,16, 16,16l 32,0 c 8.848,0, 16-7.168, 16-16
			L 287.968,176 z"  />
<glyph unicode="&#x54;" d="M 78.816,480l-32,0 c-8.832,0-16-7.152-16-16l0-480 c0-8.848, 7.168-16, 16-16l 32,0 c 8.832,0, 16,7.152, 16,16
			L 94.816,464 C 94.816,472.848, 87.664,480, 78.816,480z M 478.816,176L 478.816,400 c0,8.848-1.968,16-16,16c-71.152-32-320,64-320,64c-8.832,0-16-7.152-16-16l0-240 
			c0-8.848, 7.168-16, 16-16c0,0, 176-57.136, 320-48C 490.256,150.864, 478.816,167.152, 478.816,176z"  />
<glyph unicode="&#x55;" d="M0,224c0-141.376, 114.624-256, 256-256c 141.392,0, 256,114.624, 256,256c0,141.392-114.608,256-256,256C 114.624,480,0,365.392,0,224z M 384,224
	l-128-128l0,96 L 128,192 l0,64 l 128,0 L 256,352 L 384,224z"  />
<glyph unicode="&#x56;" d="M 512,224c0,141.376-114.624,256-256,256C 114.608,480,0,365.376,0,224c0-141.392, 114.608-256, 256-256C 397.376-32, 512,82.608, 512,224z
	 M 128,224l 128,128l0-96 l 128,0 l0-64 l-128,0 l0-96 L 128,224z"  />
<glyph unicode="&#x3c;" d="M 219.429,333.714l0-73.143 L 146.286,260.571 l0-73.143 l 73.143,0 l0-73.143 l 73.143,0 l0,73.143 l 73.143,0 l0,73.143 l-73.143,0 L 292.571,333.714 L 219.429,333.714 z M0,224c0-141.349, 114.651-256, 256-256
	c 141.349,0, 256,114.651, 256,256c0,141.349-114.651,256-256,256C 114.651,480,0,365.349,0,224z M 28.16,224C 28.16,349.806, 130.194,451.84, 256,451.84S 483.84,349.806, 483.84,224
	S 381.806-3.84, 256-3.84S 28.16,98.194, 28.16,224z"  />
<glyph unicode="&#x3d;" d="M 109.714,352l0-18.286 l0-164.571 l 18.286,0 L 128,333.714 l 146.286,0 l0-18.286 l 109.714,0 L 384,352 l-164.571,0 L 219.429,370.286 L 117.943,370.286 C 115.2,367.543, 112.457,364.8, 109.714,362.057L 109.714,352 z M 146.286,297.143l0-18.286 l0-164.571 l 18.286,0 l0,164.571 l 146.286,0 l0-18.286 l 109.714,0 
	l0,36.571 l-164.571,0 L 256,315.429 L 146.286,315.429 L 146.286,297.143 z M 371.566,59.429c 51.749,36.389, 85.577,96.53, 85.577,164.571c0,6.217-0.366,12.251-0.914,18.286L 292.571,242.286 l0,18.286 l-109.714,0 l0-18.286 l0-18.286 l0-164.571 L 371.566,59.429 z M0,224c0-141.349, 114.651-256, 256-256
	c 141.349,0, 256,114.651, 256,256c0,141.349-114.651,256-256,256C 114.651,480,0,365.349,0,224z M 28.16,224C 28.16,349.806, 130.194,451.84, 256,451.84S 483.84,349.806, 483.84,224
	S 381.806-3.84, 256-3.84S 28.16,98.194, 28.16,224z"  />
<glyph unicode="&#x3e;" d="M 310.857,205.714l 36.571,0 l0-36.571 l-36.571,0 L 310.857,205.714 z M 365.714,205.714l 36.571,0 l0-36.571 l-36.571,0 L 365.714,205.714 z M 310.857,150.857l 36.571,0 l0-36.571 l-36.571,0 L 310.857,150.857 z M 402.286,150.857l0-35.657 
	c 6.949,9.527, 13.184,19.566, 18.286,30.354L 420.571,150.857 l 2.578,0 c 2.542,5.851, 4.754,12.069, 6.747,18.286L 420.571,169.143 l0,36.571 l 16.823,0 c 0.549,6.034, 0.933,12.069, 0.933,18.286L 292.571,224 l0-178.469 
	c 14.629,2.926, 28.709,7.68, 41.874,13.897L 310.857,59.429 l0,36.571 l 36.571,0 l0-29.623 c 21.029,12.069, 39.497,28.526, 54.126,47.909L 365.714,114.286 l0,36.571 L 402.286,150.857 z M 364.599,370.286L 147.2,370.286 L 146.286,369.554l0-291.109 
	c 9.691-7.296, 20.114-13.714, 31.269-19.017L 274.286,59.429 L 274.286,242.286 l 109.714,0 L 384,353.829 C 377.966,359.68, 371.566,365.166, 364.599,370.286z M 164.571,352l 36.571,0 l0-36.571 L 164.571,315.429 L 164.571,352 z M 219.429,352l 36.571,0 l0-36.571 l-36.571,0 L 219.429,352 z M 329.143,352l 36.571,0 l0-36.571 l-36.571,0 L 329.143,352 z M 274.286,352
	l 36.571,0 l0-36.571 l-36.571,0 L 274.286,352 z M 164.571,297.143l 36.571,0 l0-36.571 L 164.571,260.571 L 164.571,297.143 z M 219.429,297.143l 36.571,0 l0-36.571 l-36.571,0 L 219.429,297.143 z M 164.571,242.286l 36.571,0 l0-36.571 L 164.571,205.714 L 164.571,242.286 z M 219.429,242.286l 36.571,0 l0-36.571 l-36.571,0 L 219.429,242.286 z M 164.571,187.429l 36.571,0 l0-36.571 L 164.571,150.857 L 164.571,187.429 z M 219.429,187.429l 36.571,0 l0-36.571 l-36.571,0 L 219.429,187.429 z M 164.571,132.571l 36.571,0 l0-36.571 L 164.571,96 L 164.571,132.571 
	z M 219.429,132.571l 36.571,0 l0-36.571 l-36.571,0 L 219.429,132.571 z M 329.143,297.143l 36.571,0 l0-36.571 l-36.571,0 L 329.143,297.143 z M 274.286,297.143l 36.571,0 l0-36.571 l-36.571,0 L 274.286,297.143 z M0,224c0-141.349, 114.651-256, 256-256c 141.349,0, 256,114.651, 256,256c0,141.349-114.651,256-256,256
	C 114.651,480,0,365.349,0,224z M 28.16,224C 28.16,349.806, 130.194,451.84, 256,451.84S 483.84,349.806, 483.84,224S 381.806-3.84, 256-3.84S 28.16,98.194, 28.16,224z"  />
<glyph unicode="&#x3f;" d="M 164.571,297.143c0-50.469, 40.96-91.429, 91.429-91.429s 91.429,40.96, 91.429,91.429s-40.96,91.429-91.429,91.429S 164.571,347.611, 164.571,297.143z M 338.286,205.714L 256,205.714 L 173.714,205.714 
	c-39.131,0-71.863-27.429-80.274-64.183c 30.171-59.246, 91.611-99.858, 162.56-99.858s 132.389,40.613, 162.578,99.858C 410.149,178.286, 377.435,205.714, 338.286,205.714z M0,224
	c0-141.349, 114.651-256, 256-256c 141.349,0, 256,114.651, 256,256c0,141.349-114.651,256-256,256C 114.651,480,0,365.349,0,224z M 28.16,224C 28.16,349.806, 130.194,451.84, 256,451.84
	S 483.84,349.806, 483.84,224S 381.806-3.84, 256-3.84S 28.16,98.194, 28.16,224z"  />
<glyph unicode="&#x41;" d="M 496.131,44.302L 374.855,147.449c-12.537,11.283-25.945,16.463-36.776,15.963C 366.707,196.946, 384,240.451, 384,288
	C 384,394.039, 298.039,480, 192,480C 85.962,480,0,394.039,0,288c0-106.039, 85.961-192, 192-192c 47.549,0, 91.054,17.293, 124.588,45.922
	c-0.5-10.831, 4.68-24.239, 15.963-36.776l 103.147-121.276c 17.661-19.623, 46.511-21.277, 64.11-3.678S 515.754,26.641, 496.131,44.302z
	 M 192,160c-70.692,0-128,57.308-128,128S 121.308,416, 192,416s 128-57.308, 128-128S 262.693,160, 192,160z"  />
<glyph unicode="&#x57;" d="M0,416l0-416 l 512,0 L 512,416 L0,416 z M 480,32L 32,32 L 32,384 l 448,0 L 480,32 zM 352,304A48,48 2700 1 1 448,304A48,48 2700 1 1 352,304zM 448,64 L 64,64 L 160,320 L 288,160 L 352,208 Z"  />
<glyph unicode="&#x58;" d="M 256,480C 167.634,480, 96,408.366, 96,320c0-160, 160-352, 160-352s 160,192, 160,352C 416,408.366, 344.365,480, 256,480z M 256,224
	c-53.020,0-96,42.98-96,96s 42.98,96, 96,96s 96-42.98, 96-96S 309.020,224, 256,224z"  />
<glyph unicode="&#x59;" d="M 256,480C 167.634,480, 96,408.366, 96,320c0-160, 160-352, 160-352s 160,192, 160,352C 416,408.366, 344.365,480, 256,480z M 256,222
	c-54.124,0-98,43.876-98,98s 43.876,98, 98,98s 98-43.876, 98-98S 310.124,222, 256,222zM 194,320A62,62 1260 1 1 318,320A62,62 1260 1 1 194,320z"  />
<glyph unicode="&#x5a;" d="M0,384L 160,448L 160,64L0,0 zM 352,384 L 352,0 L 192,53.333 L 192,437.333 ZM 512,448 L 512,64 L 384,12.8 L 384,396.8 Z"  />
<glyph unicode="&#x5b;" d="M 256,384C 144.341,384, 47.559,318.979,0,224c 47.559-94.979, 144.341-160, 256-160c 111.657,0, 208.439,65.021, 256,160
	C 464.442,318.979, 367.657,384, 256,384z M 382.225,299.148c 30.081-19.187, 55.571-44.887, 74.717-75.148
	c-19.146-30.261-44.637-55.961-74.718-75.149C 344.427,124.743, 300.779,112, 256,112c-44.78,0-88.428,12.743-126.225,36.852
	C 99.695,168.038, 74.205,193.738, 55.058,224c 19.146,30.262, 44.637,55.962, 74.717,75.148c 1.959,1.25, 3.938,2.461, 5.929,3.65
	C 130.725,289.134, 128,274.387, 128,259c0-70.692, 57.308-128, 128-128s 128,57.308, 128,128c0,15.387-2.725,30.134-7.704,43.799
	C 378.286,301.61, 380.265,300.398, 382.225,299.148z M 256,275c0-26.51-21.49-48-48-48s-48,21.49-48,48s 21.49,48, 48,48
	S 256,301.51, 256,275z"  />
<glyph unicode="&#x5c;" d="M 256,480C 114.615,480,0,365.385,0,224s 114.615-256, 256-256s 256,114.615, 256,256S 397.385,480, 256,480z M 256,16
		c-114.875,0-208,93.125-208,208S 141.125,432, 256,432s 208-93.125, 208-208S 370.875,16, 256,16zM 406.628,246.627l-128.001,128c-12.496,12.497-32.757,12.497-45.254,0c-12.497-12.497-12.497-32.758,0-45.255L 306.745,256
	L 128,256 c-17.673,0-32-14.327-32-32c0-17.673, 14.327-32, 32-32l 178.745,0 l-73.373-73.372c-12.497-12.497-12.497-32.759,0-45.256
	C 239.621,67.124, 247.811,64, 256,64s 16.379,3.124, 22.627,9.372l 128.001,128C 419.124,213.869, 419.124,234.131, 406.628,246.627z"  />
<glyph unicode="&#x5d;" d="M 256,480C 397.385,480, 512,365.385, 512,224s -114.615-256, -256-256s -256,114.615, -256,256S 114.615,480, 256,480z M 256,16
		c 114.875,0 208,93.125 208,208S 370.875,432, 256,432s -208-93.125, -208-208S 141.125,16, 256,16zM 105.372,246.627l 128.001,128c 12.496,12.497 32.757,12.497 45.254,0c 12.497-12.497 12.497-32.758,0-45.255L 205.255,256
	L 384,256 c 17.673,0 32-14.327 32-32c0-17.673, -14.327-32, -32-32l-178.745,0 l 73.373-73.372c 12.497-12.497 12.497-32.759,0-45.256
	C 272.379,67.124, 264.189,64, 256,64s -16.379,3.124, -22.627,9.372l -128.001,128C 92.876,213.869, 92.876,234.131, 105.372,246.627z"  />
<glyph unicode="&#x5e;" d="M 207.216,32.368c-0.4-0.4-0.816-0.816-1.2-1.216
	c-40.128-38.384-103.952-39.136-142.656-1.536c-41.056,38.64-41.872,94.608, 0.704,137.664c 0.336,0.336, 0.608,0.688, 0.944,1.024
	c 0.4,0.368, 0.784,0.768, 1.168,1.136l 264.32,256.864l0-0.112 l 0.064,0.208l 2.096,2.048c 24.416,23.232, 63.136,23.648, 86.624,0.816
	c 14.128-20.128, 23.024-60.624-0.784-84.176l-2.192-2.144l-25.008-24.272l-22.944-22.32L 174.768,108.272l-0.096,0.096l-22.336-21.696
	l-0.608,0.752l-0.56-0.624l-1.104-1.216c-0.096-0.064-0.208-0.128-0.288-0.224c-8.928-8.064-22.704-8.128-31.136,0.064
	c-8.352,8.128-8.336,20.032-0.016,28.896c 0.272,0.256, 0.432,0.56, 0.704,0.816l 24.224,23.552l 177.36,172.336L 296.64,334.56L 119.28,162.192
	l-21.536-23.504l0-0.032 c-0.064-0.064-0.128-0.096-0.208-0.192c-0.192-0.192-0.352-0.368-0.544-0.576
	c-22.128-22.096-25.184-54.208-3.36-75.44c 21.84-21.2, 57.632-19.52, 80.352,2l 0.032-0.032l 0.448,0.464
	c 0.048,0.032, 0.096,0.064, 0.128,0.096c 0.048,0.032, 0.080,0.096, 0.112,0.128l 240.832,230.016l 24.976,24.304l 2.224,2.128l-0.032,0.032
	c 37.696,37.168, 19.792,106.784, 1.568,131.968c-37.088,36.032-98.144,35.152-136.368-2.016c-0.56-0.528-1.024-1.12-1.568-1.68l-0.064,0.048
	L 41.92,193.008l 0.032-0.032c-0.208-0.224-0.432-0.368-0.656-0.592c-0.368-0.336-0.704-0.784-1.072-1.152l-0.384-0.368l 0.016-0.032
	c-52.432-52.512-53.296-135.088-1.472-185.504c 52.336-50.864, 138.528-49.584, 192.48,2.848c 0.224,0.224, 0.384,0.432, 0.608,0.656l 0.064-0.064
	L 512,281.328l-24.256,23.568L 207.216,32.368z"  />
<glyph unicode="&#x5f;" d="M 92.343,245.522c-6.51-6.51-9.618-13.897-9.618-22.674c0-8.485, 3.109-16.146, 9.618-22.638l 223.177-222.903
	c 6.528-6.254, 14.171-9.618, 22.674-9.618c 8.466,0, 15.854,3.383, 22.382,9.618l 33.134,33.408c 6.528,6.254, 9.618,13.897, 9.618,22.4
	c0,8.485-3.090,15.835-9.618,22.363l-168.777,168.814l 168.777,166.821c 6.528,6.51, 9.618,13.897, 9.618,22.089c0,8.21-3.090,15.579-9.618,22.089
	l-33.134,33.993c-6.51,6.217-13.915,9.618-22.638,9.618c-8.521,0-16.146-3.401-22.418-9.618L 92.343,245.522z"  />
<glyph unicode="&#x60;" d="M 393.691,201.015c 6.51,6.51, 9.618,13.897, 9.618,22.674c0,8.485-3.109,16.146-9.618,22.638L 170.514,469.248
	C 163.986,475.502, 156.343,478.866, 147.84,478.866c-8.466,0-15.854-3.383-22.382-9.618L 92.343,435.84C 85.797,429.586, 82.706,421.943, 82.706,413.44
	c0-8.485, 3.090-15.835, 9.618-22.363l 168.777-168.814l-168.777-166.802c-6.528-6.51-9.618-13.897-9.618-22.107s 3.090-15.579, 9.618-22.089l 33.134-33.975
	c 6.51-6.235, 13.915-9.618, 22.638-9.618c 8.521,0, 16.146,3.401, 22.418,9.618L 393.691,201.015z"  />
<glyph unicode="&#x61;" d="M 431.543,190.007c 7.15,0, 13.349-2.395, 18.103-7.314
	c 4.937-4.937, 7.497-10.789, 7.497-17.573c0-7.113-2.578-13.147-7.497-18.085l-175.543-171.703c-4.937-4.955-10.971-7.314-18.286-7.314c-7.131,0-13.166,2.377-18.103,7.314
	l-175.36,171.703C 57.417,151.973, 54.857,158.007, 54.857,165.102c0,6.601, 2.56,12.453, 7.314,17.39c 4.937,5.102, 10.789,7.497, 17.554,7.497L 431.543,189.989 z M 79.726,258.011
	c-6.766,0-12.617,2.377-17.554,7.314C 57.417,270.263, 54.857,276.114, 54.857,283.063s 2.56,12.983, 7.497,17.737L 237.714,472.686C 242.834,477.623, 248.869,480, 255.817,480
	c 7.314,0, 13.349-2.377, 18.286-7.314l 175.543-171.886c 4.937-4.754, 7.497-10.789, 7.497-17.737c0-6.766-2.578-12.617-7.497-17.554c-4.754-4.937-10.971-7.497-18.103-7.497L 79.726,258.011 z"  />
<glyph unicode="&#x62;" d="M 477.33,342.912c 8.997,0, 16.841-3.017, 22.839-9.234
	c 6.217-6.217, 9.454-13.605, 9.454-22.144c0-8.96-3.237-16.567-9.454-22.802L 278.821,72.229c-6.235-6.235-13.842-9.234-23.058-9.234
	c-8.997,0-16.603,2.999-22.839,9.234L 11.831,288.731C 5.595,294.967, 2.377,302.574, 2.377,311.534c0,8.338, 3.218,15.689, 9.216,21.925
	c 6.217,6.437, 13.605,9.454, 22.126,9.454L 477.33,342.912 z"  />
<glyph unicode="&#x63;" d="M 34.67,63.013c-8.997,0-16.841,3.017-22.839,9.234
	c-6.217,6.217-9.454,13.586-9.454,22.144c0,8.96, 3.237,16.567, 9.454,22.802l 221.33,216.503c 6.235,6.235, 13.842,9.234, 23.058,9.234
	c 8.997,0, 16.603-2.999, 22.839-9.234l 221.093-216.503c 6.254-6.235, 9.472-13.842, 9.472-22.802c0-8.338-3.218-15.671-9.216-21.925
	c-6.235-6.437-13.605-9.454-22.126-9.454L 34.67,63.013 z"  />
<glyph unicode="&#x64;" d="M0,448l0-448 l 512,0 L 512,448 L0,448 z M 192,160l0,96 l 128,0 l0-96 L 192,160 z M 320,128l0-96 L 192,32 l0,96 L 320,128 z M 320,384l0-96 L 192,288 L 192,384 L 320,384 z M 160,384l0-96 L 32,288 L 32,384 L 160,384 z
	 M 32,256l 128,0 l0-96 L 32,160 L 32,256 z M 352,256l 128,0 l0-96 L 352,160 L 352,256 z M 352,288L 352,384 l 128,0 l0-96 L 352,288 z M 32,128l 128,0 l0-96 L 32,32 L 32,128 z M 352,32l0,96 l 128,0 l0-96 L 352,32 z"  />
<glyph unicode="&#x65;" d="M 448,416l-48,0 l0-16 c0-17.645-14.355-32-32-32s-32,14.355-32,32L 336,416 L 176,416 l0-16 c0-17.645-14.355-32-32-32s-32,14.355-32,32L 112,416 L 64,416 
		c-17.6,0-32-14.4-32-32l0-352 c0-17.6, 14.4-32, 32-32l 384,0 c 17.6,0, 32,14.4, 32,32L 480,384 C 480,401.6, 465.6,416, 448,416z M 448,32.058
		c-0.017-0.020-0.038-0.041-0.058-0.058L 64.057,32 c-0.020,0.017-0.041,0.038-0.057,0.058L 64,320 l 384,0 L 448,32.058 zM 144,384c 8.836,0, 16,7.164, 16,16L 160,464 c0,8.836-7.164,16-16,16s-16-7.164-16-16l0-64 C 128,391.164, 135.164,384, 144,384zM 368,384c 8.836,0, 16,7.164, 16,16L 384,464 c0,8.836-7.164,16-16,16s-16-7.164-16-16l0-64 C 352,391.164, 359.164,384, 368,384zM 288,288L 128,288L 128,256L 256,256L 256,192L 128,192L 128,160L 256,160L 256,96L 128,96L 128,64L 288,64 	zM 352,64L 384,64L 384,288L 320,288L 320,256L 352,256 	zM 436-12L 76-12 c-17.6,0-32,10.4-32,28l0-16 c0-17.6, 14.4-32, 32-32l 360,0 c 17.6,0, 32,14.4, 32,32l0,16 C 468-1.6, 453.6-12, 436-12z"  />
<glyph unicode="&#x48;" d="M 448,480L0,480 l0-512 l 512,0 L 512,416 L 448,480z M 256,416l 64,0 l0-128 l-64,0 L 256,416 z M 448,32L 64,32 L 64,416 l 32,0 l0-160 l 288,0 L 384,416 l 37.489,0 L 448,389.491L 448,32 z"  />
<glyph unicode="&#x35;" d="M 128,320A128,128 12780 1 1 384,320A128,128 12780 1 1 128,320zM 384,160L 128,160 C 57.308,160,0,102.691,0,32l0-32 l 4.033,0 l 503.934,0 L 512,0 l0,32 C 512,102.691, 454.692,160, 384,160z"  />
<glyph unicode="&#x66;" d="M 256,480 C 116.626,480 3.271,368.619 0.076,230.013 C 3.036,350.945 94.992,448 208,448 C 322.875,448 416,347.712 416,224 C 416,197.49 437.49,176 464,176 C 490.51,176 512,197.49 512,224 C 512,365.385 397.385,480 256,480 ZM 256-32 C 395.374-32 508.729,79.381 511.924,217.987 C 508.964,97.055 417.008,0 304,0 C 189.125,0 96,100.288 96,224 C 96,250.51 74.51,272 48,272 C 21.49,272 0,250.51 0,224 C 0,82.615 114.615-32 256-32 Z"  />
<glyph unicode="&#x67;" d="M 512,224c-0.639,33.431-7.892,66.758-21.288,97.231c-13.352,30.5-32.731,58.129-56.521,80.96
	c-23.776,22.848-51.972,40.91-82.492,52.826C 321.197,466.979, 288.401,472.693, 256,472c-32.405-0.641-64.666-7.687-94.167-20.678
	c-29.524-12.948-56.271-31.735-78.367-54.788c-22.112-23.041-39.58-50.354-51.093-79.899C 20.816,287.104, 15.309,255.375, 16,224
	c 0.643-31.38, 7.482-62.574, 20.067-91.103c 12.544-28.55, 30.738-54.414, 53.055-75.774c 22.305-21.377, 48.736-38.252, 77.307-49.36
	C 194.988-3.389, 225.652-8.688, 256-8c 30.354,0.645, 60.481,7.277, 88.038,19.457c 27.575,12.141, 52.558,29.74, 73.183,51.322
	c 20.641,21.57, 36.922,47.118, 47.627,74.715c 6.517,16.729, 10.94,34.2, 13.271,51.899c 0.623-0.036, 1.249-0.060, 1.881-0.060
	c 17.673,0, 32,14.326, 32,32c0,0.898-0.047,1.786-0.119,2.666L 512,223.999 z M 461.153,139.026c-11.736-26.601-28.742-50.7-49.589-70.59
	c-20.835-19.905-45.5-35.593-72.122-45.895C 312.828,12.202, 284.297,7.315, 256,8c-28.302,0.649-56.298,6.868-81.91,18.237
	c-25.625,11.333-48.842,27.745-67.997,47.856c-19.169,20.099-34.264,43.882-44.161,69.529C 51.997,169.264, 47.318,196.729, 48,224
	c 0.651,27.276, 6.664,54.206, 17.627,78.845c 10.929,24.65, 26.749,46.985, 46.123,65.405c 19.365,18.434, 42.265,32.935, 66.937,42.428
	C 203.356,420.208, 229.755,424.681, 256,424c 26.25-0.653, 52.114-6.459, 75.781-17.017c 23.676-10.525, 45.128-25.751, 62.812-44.391
	c 17.698-18.629, 31.605-40.647, 40.695-64.344C 444.412,274.552, 448.679,249.219, 448,224l 0.119,0 c-0.072-0.88-0.119-1.768-0.119-2.666
	c0-16.506, 12.496-30.087, 28.543-31.812C 473.431,172.111, 468.278,155.113, 461.153,139.026z"  />
<glyph unicode="&#x68;" d="M 192,416A64,64 12780 1 1 320,416A64,64 12780 1 1 192,416zM 327.765,359.765A64,64 12780 1 1 455.765,359.765A64,64 12780 1 1 327.765,359.765zM 416,224A32,32 12780 1 1 480,224A32,32 12780 1 1 416,224zM 359.765,88.235A32,32 12780 1 1 423.765,88.23500000000001A32,32 12780 1 1 359.765,88.23500000000001zM 224.001,32A32,32 12780 1 1 288.001,32A32,32 12780 1 1 224.001,32zM 88.236,88.235A32,32 12780 1 1 152.236,88.23500000000001A32,32 12780 1 1 88.236,88.23500000000001zM 72.236,359.765A48,48 12780 1 1 168.236,359.765A48,48 12780 1 1 72.236,359.765zM 28,224A36,36 12780 1 1 100,224A36,36 12780 1 1 28,224z"  />
<glyph unicode="&#x24;" d="M 432,480 C 476.182,480 512,444.183 512,400 C 512,381.99 506.045,365.371 496,352 L 464,320 L 352,432 L 384,464 C 397.371,474.045 413.989,480 432,480 ZM 32,112L0-32l 144,32l 296,296L 328,408L 32,112z M 357.789,298.211l-224-224l-27.578,27.578l 224,224L 357.789,298.211z"  />
<glyph unicode="&#x69;" d="M 416,320L 416,400 c0,8.8-7.2,16-16,16L 288,416 L 288,448 c0,17.6-14.4,32-32,32l-64,0 c-17.602,0-32-14.4-32-32l0-32 L 48,416 c-8.801,0-16-7.2-16-16l0-320 
	c0-8.8, 7.199-16, 16-16l 144,0 l0-96 l 224,0 l 96,96L 512,320 L 416,320 z M 192,447.943c 0.017,0.019, 0.036,0.039, 0.057,0.057l 63.884,0 
	c 0.021-0.018, 0.041-0.038, 0.059-0.057L 256,416 l-64,0 L 192,447.943 z M 96,352L 96,384 l 256,0 l0-32 L 96,352 z M 416,13.255L 416,64 l 50.745,0 L 416,13.255z M 480,96l-96,0 l0-96 
	L 224,0 L 224,288 l 256,0 L 480,96 z"  />
<glyph unicode="&#x6a;" d="M 432,416l-32,0 l0-32 l 16,0 l0-256 L 288,128 l0-128 L 96,0 L 96,384 l 16,0 L 112,416 L 80,416 c-8.801,0-16-7.2-16-16l0-416 c0-8.8, 7.199-16, 16-16l 252,0 l 116,116L 448,400 
	C 448,408.8, 440.8,416, 432,416z M 320,0l0,96 l 96,0 L 320,0zM 384,416l-64,0 L 320,448 c0,17.6-14.4,32-32,32l-64,0 c-17.602,0-32-14.4-32-32l0-32 l-64,0 l0-64 l 256,0 L 384,416 z M 288,416l-64,0 L 224,447.943 
	c 0.017,0.019, 0.036,0.039, 0.057,0.057l 63.884,0 c 0.021-0.018, 0.041-0.038, 0.059-0.057L 288,416 z"  />
<glyph unicode="&#x20;" horiz-adv-x="256" />
</font></defs></svg>